"id","sequence","name","product_tmpl_id","company_id","min_qty","price"
"__export__.product_supplierinfo_39_721c1c80","1","CV. Cupicup","Plastic Straw","Janji Manis Cafe","0.0","0.0"
"__export__.product_supplierinfo_38_3814cbc8","1","CV. Cupicup","Paper cup","Janji Manis Cafe","0.0","0.0"
"__export__.product_supplierinfo_40_4fd2e26e","1","CV. Cupicup","Plastic cup","Janji Manis Cafe","0.0","0.0"
"__export__.product_supplierinfo_33_bd8478ee","1","CV. Icy Block","Ice cube","Janji Manis Cafe","0.0","0.0"
"__export__.product_supplierinfo_28_b486681c","1","CV. Simanis","Caramel Syrup","Janji Manis Cafe","0.0","0.0"
"__export__.product_supplierinfo_47_0928767d","1","CV. Simanis","Vanilla Syrup","Janji Manis Cafe","0.0","0.0"
"__export__.product_supplierinfo_35_1a42ab7d","1","CV. Simanis","Mocha Syrup","Janji Manis Cafe","0.0","0.0"
"__export__.product_supplierinfo_34_91645c0e","1","CV. Simanis","Liquid Sugar","Janji Manis Cafe","0.0","0.0"
"__export__.product_supplierinfo_32_38edb5c9","1","CV. Simanis","Hazelnut Syrup","Janji Manis Cafe","0.0","0.0"
"__export__.product_supplierinfo_42_0ef2cf1f","1","CV. Tumblerina","Stainless straw","Janji Manis Cafe","0.0","0.0"
"__export__.product_supplierinfo_43_32e25133","1","CV. Tumblerina","Totebag","Janji Manis Cafe","0.0","0.0"
"__export__.product_supplierinfo_44_f39b0983","1","CV. Tumblerina","Tumbler 1","Janji Manis Cafe","0.0","0.0"
"__export__.product_supplierinfo_46_446e16e7","1","CV. Tumblerina","Tumbler 3","Janji Manis Cafe","0.0","0.0"
"__export__.product_supplierinfo_45_8001a5ae","1","CV. Tumblerina","Tumbler 2","Janji Manis Cafe","0.0","0.0"
"__export__.product_supplierinfo_30_1fd270ba","1","Kopi Aroma","Coffee Robusta","Janji Manis Manufacture","1.0","110000.0"
"__export__.product_supplierinfo_29_fe9064cc","1","Kopi Aroma","Coffee Arabica","Janji Manis Manufacture","1.0","160000.0"
